{
  "response": [
    {
      "datetime": 1734101534,
      "filename": "iode-5.8-20241214-apollon-ota.zip",
      "id": "f56d322326e3c2abc814326c55cc13bf87d182242b35deb2353db16fa44249de",
      "romtype": "UNOFFICIAL",
      "size": 1757121384,
      "url": "https://gitlab.iode.tech/ota/betas/-/raw/master/iode-5.8-20241214-apollon-ota.zip",
      "version": "5.8"
    }
  ]
}
