{
  "response": [
    {
      "datetime": 1734093397,
      "filename": "iode-4.19-20241214-beyond1lte-ota.zip",
      "id": "4db527170226a42d43343a04a5a5da7a8db1b70581ee819b232aa05fbf280762",
      "romtype": "UNOFFICIAL",
      "size": 1311761113,
      "url": "https://gitlab.iode.tech/ota/betas/-/raw/master/iode-4.19-20241214-beyond1lte-ota.zip",
      "version": "A - 4.19"
    }
  ]
}
