{
  "response": [
    {
      "datetime": 1734091988,
      "filename": "iode-4.19-20241214-beyond2lte-ota.zip",
      "id": "619226a18c7bb8b58c0940d04fa8ef4af6575cb95a01edaf9b9e85dcedffd650",
      "romtype": "UNOFFICIAL",
      "size": 1311952291,
      "url": "https://gitlab.iode.tech/ota/betas/-/raw/master/iode-4.19-20241214-beyond2lte-ota.zip",
      "version": "A - 4.19"
    }
  ]
}
