{
  "response": [
    {
      "datetime": 1737745442,
      "filename": "iode-6.0-20250124-oriole-ota.zip",
      "id": "4c31cbb501f7e78fead25d45f466c95db72b910f848eb312907e11060209d050",
      "romtype": "UNOFFICIAL",
      "size": 1463544616,
      "url": "https://gitlab.iode.tech/ota/betas/-/raw/master/iode-6.0-20250124-oriole-ota.zip",
      "version": "6.0"
    }
  ]
}
