{
  "response": [
    {
      "datetime": 1737724736,
      "filename": "iode-6.0-20250124-salami-ota.zip",
      "id": "d5a79e10afa24bd3f1ee09feac9ae361af40d8baa8b5f3a7bbac132ed025c2e8",
      "romtype": "UNOFFICIAL",
      "size": 2169424772,
      "url": "https://gitlab.iode.tech/ota/betas/-/raw/master/iode-6.0-20250124-salami-ota.zip",
      "version": "6.0"
    }
  ]
}
